Exploring brick experiment data
…
brick_colour_summarise

## # A tibble: 3 x 5
##   brick_colour  mean    sd     n    se
##   <fct>        <dbl> <dbl> <int> <dbl>
## 1 1             4.91  3.19    60 0.412
## 2 2             4.16  2.88    60 0.372
## 3 3             4.60  2.77    60 0.357

brick_id_summarise

## # A tibble: 36 x 5
##    brick_id  mean    sd     n    se
##    <fct>    <dbl> <dbl> <int> <dbl>
##  1 M1B1A     5.71 1.83      5 0.818
##  2 M1B1B     6.12 2.47      5 1.11 
##  3 M1B1C     3.52 0.846     5 0.378
##  4 M1B1D     4.33 2.78      5 1.25 
##  5 M1B2A     4.25 2.66      5 1.19 
##  6 M1B2B     6.28 3.97      5 1.77 
##  7 M1B2C     3.20 2.11      5 0.943
##  8 M1B2D     3.02 2.43      5 1.09 
##  9 M1B3A     2.72 1.90      5 0.849
## 10 M1B3B     5.97 4.07      5 1.82 
## # ... with 26 more rows
…
#Brick ID
brick_id_point<-data %>%
  group_by(brick_id, genotype, array, side) %>%
  summarise(mean=mean(growth, na.rm = TRUE))
brick_id_point

## # A tibble: 180 x 5
## # Groups:   brick_id, genotype, array [?]
##    brick_id genotype array side    mean
##    <fct>    <fct>    <fct> <fct>  <dbl>
##  1 M1B1A    1        A     E     NaN   
##  2 M1B1A    1        A     N       3.88
##  3 M1B1A    1        A     S       4.39
##  4 M1B1A    1        A     TOP     7.40
##  5 M1B1A    1        A     W       7.16
##  6 M1B1B    1        B     E     NaN   
##  7 M1B1B    1        B     N       9.12
##  8 M1B1B    1        B     S       3.13
##  9 M1B1B    1        B     TOP     6.58
## 10 M1B1B    1        B     W       5.63
## # ... with 170 more rows
…
#side included
brick_id_point_side<-data %>%
  group_by(brick_id, genotype, array, side) %>%
  summarise(mean=mean(growth, na.rm = TRUE))
brick_id_point_side

## # A tibble: 180 x 5
## # Groups:   brick_id, genotype, array [?]
##    brick_id genotype array side    mean
##    <fct>    <fct>    <fct> <fct>  <dbl>
##  1 M1B1A    1        A     E     NaN   
##  2 M1B1A    1        A     N       3.88
##  3 M1B1A    1        A     S       4.39
##  4 M1B1A    1        A     TOP     7.40
##  5 M1B1A    1        A     W       7.16
##  6 M1B1B    1        B     E     NaN   
##  7 M1B1B    1        B     N       9.12
##  8 M1B1B    1        B     S       3.13
##  9 M1B1B    1        B     TOP     6.58
## 10 M1B1B    1        B     W       5.63
## # ... with 170 more rows
…
