Exploring brick experiment data
…
brick_colour_summarise

## # A tibble: 3 x 5
##   brick_colour   mean     sd     n      se
##   <fct>         <dbl>  <dbl> <int>   <dbl>
## 1 1            0.0196 0.0128    60 0.00165
## 2 2            0.0166 0.0115    60 0.00149
## 3 3            0.0184 0.0111    60 0.00143

brick_id_summarise

## # A tibble: 36 x 5
##    brick_id   mean      sd     n      se
##    <fct>     <dbl>   <dbl> <int>   <dbl>
##  1 M1B1A    0.0228 0.00731     5 0.00327
##  2 M1B1B    0.0245 0.00989     5 0.00442
##  3 M1B1C    0.0141 0.00338     5 0.00151
##  4 M1B1D    0.0173 0.0111      5 0.00498
##  5 M1B2A    0.0170 0.0106      5 0.00476
##  6 M1B2B    0.0251 0.0159      5 0.00709
##  7 M1B2C    0.0128 0.00843     5 0.00377
##  8 M1B2D    0.0121 0.00973     5 0.00435
##  9 M1B3A    0.0109 0.00760     5 0.00340
## 10 M1B3B    0.0239 0.0163      5 0.00727
## # ... with 26 more rows
…
#Brick ID-scatter plots
# No side included
brick_id_point<-data %>%
  group_by(brick_id, genotype, array) %>%
  summarise(mean=mean(gpd, na.rm = TRUE))
brick_id_point

## # A tibble: 36 x 4
## # Groups:   brick_id, genotype [?]
##    brick_id genotype array   mean
##    <fct>    <fct>    <fct>  <dbl>
##  1 M1B1A    1        A     0.0228
##  2 M1B1B    1        B     0.0245
##  3 M1B1C    1        C     0.0141
##  4 M1B1D    1        D     0.0173
##  5 M1B2A    1        A     0.0170
##  6 M1B2B    1        B     0.0251
##  7 M1B2C    1        C     0.0128
##  8 M1B2D    1        D     0.0121
##  9 M1B3A    1        A     0.0109
## 10 M1B3B    1        B     0.0239
## # ... with 26 more rows
…
#side included
brick_id_point_side<-data %>%
  group_by(brick_id, genotype, array, side) %>%
  summarise(mean=mean(gpd, na.rm = TRUE))
brick_id_point_side

## # A tibble: 180 x 5
## # Groups:   brick_id, genotype, array [?]
##    brick_id genotype array side      mean
##    <fct>    <fct>    <fct> <fct>    <dbl>
##  1 M1B1A    1        A     E     NaN     
##  2 M1B1A    1        A     N       0.0155
##  3 M1B1A    1        A     S       0.0176
##  4 M1B1A    1        A     TOP     0.0296
##  5 M1B1A    1        A     W       0.0286
##  6 M1B1B    1        B     E     NaN     
##  7 M1B1B    1        B     N       0.0365
##  8 M1B1B    1        B     S       0.0125
##  9 M1B1B    1        B     TOP     0.0263
## 10 M1B1B    1        B     W       0.0225
## # ... with 170 more rows
…
